id;date;details;status;payment_method;payment_date;payment_amount
1;2021-01-24T06:03:24;RAM Focused;PAID;CASH_ON_DELIVERY;2021-01-24T14:25:31;64379
2;2021-01-24T02:53:30;Licensed Soft Sausages Rhode Island;CANCELLED;CASH_ON_DELIVERY;2021-01-24T08:03:48;17323
3;2021-01-24T07:20:55;Incredible Baby;CANCELLED;PAYPAL;2021-01-24T10:52:36;11017
4;2021-01-24T04:50:50;back-end Money Market Account Legacy;ISSUED;CASH_ON_DELIVERY;2021-01-24T04:54:58;51438
5;2021-01-23T23:30:58;function;PAID;PAYPAL;2021-01-24T16:05:03;32278
6;2021-01-24T00:30:46;action-items;CANCELLED;CASH_ON_DELIVERY;2021-01-24T14:17:58;5232
7;2021-01-24T17:17:29;Internal compressing Iceland;CANCELLED;CREDIT_CARD;2021-01-24T10:54:51;62169
8;2021-01-24T03:12:33;Toys;ISSUED;PAYPAL;2021-01-24T13:50:30;10756
9;2021-01-24T04:42:58;Small Rubber Salad Oklahoma;CANCELLED;PAYPAL;2021-01-24T18:26:31;58055
10;2021-01-24T03:20:43;navigate Home Loan Account Guinea-Bissau;PAID;PAYPAL;2021-01-24T15:46:54;94075
