{
  "name": "Customer",
  "fields": [
    {
      "fieldName": "firstName",
      "fieldType": "String",
      "fieldValidateRules": [
        "required"
      ]
    },
    {
      "fieldName": "lastName",
      "fieldType": "String",
      "fieldValidateRules": [
        "required"
      ]
    },
    {
      "fieldName": "gender",
      "fieldType": "Gender",
      "fieldValues": "MALE,FEMALE,OTHER",
      "fieldValidateRules": [
        "required"
      ]
    },
    {
      "fieldName": "email",
      "fieldType": "String",
      "fieldValidateRules": [
        "required",
        "pattern"
      ],
      "fieldValidateRulesPattern": "^[^@\\s]+@[^@\\s]+\\.[^@\\s]+$"
    },
    {
      "fieldName": "phone",
      "fieldType": "String",
      "fieldValidateRules": [
        "required"
      ]
    },
    {
      "fieldName": "addressLine1",
      "fieldType": "String",
      "fieldValidateRules": [
        "required"
      ]
    },
    {
      "fieldName": "addressLine2",
      "fieldType": "String",
      "fieldValidateRules": [
        "required"
      ]
    },
    {
      "fieldName": "city",
      "fieldType": "String",
      "fieldValidateRules": [
        "required"
      ]
    },
    {
      "fieldName": "country",
      "fieldType": "String",
      "fieldValidateRules": [
        "required"
      ]
    }
  ],
  "relationships": [
    {
      "relationshipType": "one-to-one",
      "otherEntityName": "user",
      "otherEntityRelationshipName": "customer",
      "relationshipName": "user",
      "otherEntityField": "id",
      "ownerSide": true
    },
    {
      "relationshipType": "one-to-many",
      "otherEntityName": "productOrder",
      "otherEntityRelationshipName": "customer",
      "relationshipName": "order"
    }
  ],
  "changelogDate": "20210124213934",
  "entityTableName": "customer",
  "dto": "no",
  "pagination": "pagination",
  "service": "serviceImpl",
  "jpaMetamodelFiltering": false,
  "fluentMethods": true,
  "readOnly": false,
  "embedded": false,
  "clientRootFolder": "",
  "applications": "*"
}
